…
预测准确度是通过对测试集进行平均计算得出的。这个过程有时被称为“滚动预测起点评估”，因为预测的“起点”会随着时间的推移而滚动。

随着时间序列预测的进行，一步预测可能不如多步预测相关。在这种情况下，基于滚动预测起点的交叉验证程序可以进行修改，以允许使用多步误差。假设我们对能够产生良好的 44 步预测的模型感兴趣。那么相应的图表如下所示。

https://otexts.com/fpp3/fpp_files/figure-html/cv4-1.png

在下面的例子中，我们将通过时间序列交叉验证和残差准确度来比较准确度。函数 `stretch_tsibble()` 用于创建多个训练集。在这个例子中，我们从长度为 `.init=3` 的训练集开始，并通过增加连续训练集的大小来进行比较，增量为 `.step=1` 。

```R
# Time series cross-validation accuracy
google_2015_tr <- google_2015 |>
  stretch_tsibble(.init = 3, .step = 1) |>
  relocate(Date, Symbol, .id)
google_2015_tr
#> # A tsibble: 31,875 x 10 [1]
#> # Key:       Symbol, .id [250]
#>    Date       Symbol   .id  Open  High   Low Close Adj_Close  Volume   day
#>    <date>     <chr>  <int> <dbl> <dbl> <dbl> <dbl>     <dbl>   <dbl> <int>
#>  1 2015-01-02 GOOG       1  526.  528.  521.  522.      522. 1447600     1
#>  2 2015-01-05 GOOG       1  520.  521.  510.  511.      511. 2059800     2
#>  3 2015-01-06 GOOG       1  512.  513.  498.  499.      499. 2899900     3
#>  4 2015-01-02 GOOG       2  526.  528.  521.  522.      522. 1447600     1
#>  5 2015-01-05 GOOG       2  520.  521.  510.  511.      511. 2059800     2
#>  6 2015-01-06 GOOG       2  512.  513.  498.  499.      499. 2899900     3
#>  7 2015-01-07 GOOG       2  504.  504.  497.  498.      498. 2065100     4
#>  8 2015-01-02 GOOG       3  526.  528.  521.  522.      522. 1447600     1
#>  9 2015-01-05 GOOG       3  520.  521.  510.  511.      511. 2059800     2
#> 10 2015-01-06 GOOG       3  512.  513.  498.  499.      499. 2899900     3
#> # ℹ 31,865 more rows
```
…
